…
The dbplyr syntax is lazy, meaning it will not execute unless it is
necessary. To actually execute the query and return the results as a
data frame, one can use the `collect()` function:

``` r
mpg_db %>%
  filter(cty > 20) %>%
  collect()
```

    ## # A tibble: 45 × 11
    ##    manufacturer model  displ  year   cyl trans     drv     cty   hwy fl    class
    ##    <chr>        <chr>  <dbl> <int> <int> <chr>     <chr> <int> <int> <chr> <chr>
    ##  1 audi         a4       1.8  1999     4 manual(m… f        21    29 p     comp…
    ##  2 audi         a4       2    2008     4 auto(av)  f        21    30 p     comp…
    ##  3 chevrolet    malibu   2.4  2008     4 auto(l4)  f        22    30 r     mids…
    ##  4 honda        civic    1.6  1999     4 manual(m… f        28    33 r     subc…
    ##  5 honda        civic    1.6  1999     4 auto(l4)  f        24    32 r     subc…
    ##  6 honda        civic    1.6  1999     4 manual(m… f        25    32 r     subc…
    ##  7 honda        civic    1.6  1999     4 manual(m… f        23    29 p     subc…
    ##  8 honda        civic    1.6  1999     4 auto(l4)  f        24    32 r     subc…
    ##  9 honda        civic    1.8  2008     4 manual(m… f        26    34 r     subc…
    ## 10 honda        civic    1.8  2008     4 auto(l5)  f        25    36 r     subc…
    ## # ℹ 35 more rows
…
### Exectute sql queries

``` r
sql <- "
  SELECT carat, cut, clarity, color, price 
  FROM diamonds 
  WHERE price > 15000
"
dbGetQuery(con, sql) |>
  as_tibble()
```

    ## # A tibble: 1,655 × 5
    ##    carat cut       clarity color price
    ##    <dbl> <fct>     <fct>   <fct> <int>
    ##  1  1.54 Premium   VS2     E     15002
    ##  2  1.19 Ideal     VVS1    F     15005
    ##  3  2.1  Premium   SI1     I     15007
    ##  4  1.69 Ideal     SI1     D     15011
    ##  5  1.5  Very Good VVS2    G     15013
    ##  6  1.73 Very Good VS1     G     15014
    ##  7  2.02 Premium   SI2     G     15014
    ##  8  2.05 Very Good SI2     F     15017
    ##  9  1.5  Very Good VS1     F     15022
    ## 10  1.82 Very Good SI1     G     15025
    ## # ℹ 1,645 more rows
…
